{
  "name": "IDE",
  "version": "dev",
  "slug": "ide",
  "description": "Advanced IDE for Home Assistant, based on Cloud9 IDE",
  "url": "https://github.com/hassio-addons/addon-ide",
  "webui": "[PROTO:ssl]://[HOST]:[PORT:8321]",
  "startup": "services",
  "arch": [
    "aarch64",
    "amd64",
    "armhf",
    "armv7",
    "i386"
  ],
  "boot": "auto",
  "hassio_api": true,
  "hassio_role": "manager",
  "auth_api": true,
  "homeassistant_api": true,
  "auto_uart": true,
  "docker_api": true,
  "ports": {
    "8321/tcp": 8321
  },
  "ports_description": {
    "8321/tcp": "IDE web interface"
  },
  "map": [
    "config:rw",
    "ssl:rw",
    "addons:rw",
    "share:rw",
    "backup:rw"
  ],
  "options": {
    "ssl": true,
    "certfile": "fullchain.pem",
    "keyfile": "privkey.pem",
    "packages": [],
    "init_commands": []
  },
  "schema": {
    "log_level": "match(^(trace|debug|info|notice|warning|error|fatal)$)?",
    "ssl": "bool",
    "certfile": "str",
    "keyfile": "str",
    "packages": ["str"],
    "init_commands": ["str"],
    "leave_front_door_open": "bool?"
  }
}
